'Charleston County SC',32.7956561,-79.7848422
'Norfolk City VA',36.8507689,-76.2858726
'Stafford County VA',38.4334566,-77.4242972
'Barbour County WV',39.1398692,-80.0087746
'York County VA',37.2103925,-76.3868797